fft2d_32.vcd
$date
	Sun Mar 08 13:11:37 2026
$end
$version
	Icarus Verilog
$end
$timescale
	1ps
$end
$scope module tb_fft2d_32 $end
$var wire 16 ! rd_data_re [15:0] $end
$var wire 16 " rd_data_im [15:0] $end
$var wire 1 # done $end
$var parameter 32 $ DATA_WIDTH $end
$var parameter 32 % FRAC $end
$var parameter 32 & N $end
$var parameter 64 ' TOTAL $end
$var reg 1 ( clk $end
$var reg 10 ) rd_addr [9:0] $end
$var reg 1 * rst_n $end
$var reg 1 + start $end
$var reg 10 , wr_addr [9:0] $end
$var reg 16 - wr_data_im [15:0] $end
$var reg 16 . wr_data_re [15:0] $end
$var reg 1 / wr_en $end
$var integer 32 0 i [31:0] $end
$scope module dut $end
$var wire 1 ( clk $end
$var wire 10 1 rd_addr [9:0] $end
$var wire 16 2 rd_data_im [15:0] $end
$var wire 16 3 rd_data_re [15:0] $end
$var wire 1 * rst_n $end
$var wire 1 + start $end
$var wire 10 4 wr_addr [9:0] $end
$var wire 16 5 wr_data_im [15:0] $end
$var wire 16 6 wr_data_re [15:0] $end
$var wire 1 / wr_en $end
$var wire 1 7 fft_done $end
$var parameter 32 8 DATA_WIDTH $end
$var parameter 32 9 FRAC $end
$var parameter 32 : N $end
$var parameter 32 ; SCALE_EN $end
$var parameter 3 < S_COL_LOAD $end
$var parameter 3 = S_COL_RUN $end
$var parameter 3 > S_COL_SAVE $end
$var parameter 3 ? S_DONE $end
$var parameter 3 @ S_IDLE $end
$var parameter 3 A S_ROW_LOAD $end
$var parameter 3 B S_ROW_RUN $end
$var parameter 3 C S_ROW_SAVE $end
$var reg 1 # done $end
$var reg 1 D fft_start $end
$var reg 5 E line_idx [4:0] $end
$var reg 3 F state [2:0] $end
$var integer 32 G i [31:0] $end
$scope module u_fft1d $end
$var wire 4 H bfly_in_grp [3:0] $end
$var wire 1 ( clk $end
$var wire 1 * rst_n $end
$var wire 1 D start $end
$var wire 16 I w_re [15:0] $end
$var wire 16 J w_im [15:0] $end
$var wire 4 K tw_addr [3:0] $end
$var wire 5 L idx_b [4:0] $end
$var wire 5 M idx_a [4:0] $end
$var wire 5 N half [4:0] $end
$var wire 4 O grp_idx [3:0] $end
$var wire 5 P group [4:0] $end
$var wire 16 Q bf_out_re_b [15:0] $end
$var wire 16 R bf_out_re_a [15:0] $end
$var wire 16 S bf_out_im_b [15:0] $end
$var wire 16 T bf_out_im_a [15:0] $end
$var parameter 32 U DATA_WIDTH $end
$var parameter 32 V FRAC $end
$var parameter 32 W N $end
$var parameter 32 X SCALE_EN $end
$var parameter 3 Y S_BITREV $end
$var parameter 3 Z S_DONE $end
$var parameter 3 [ S_IDLE $end
$var parameter 3 \ S_OUTPUT $end
$var parameter 3 ] S_STAGE $end
$var reg 4 ^ bfly_cnt [3:0] $end
$var reg 1 7 done $end
$var reg 3 _ stage_cnt [2:0] $end
$var reg 3 ` state [2:0] $end
$var integer 32 a i [31:0] $end
$scope function bit_rev $end
$var reg 5 b idx [4:0] $end
$upscope $end
$scope module u_bfly $end
$var wire 16 c in_im_a [15:0] $end
$var wire 16 d in_im_b [15:0] $end
$var wire 16 e in_re_a [15:0] $end
$var wire 16 f in_re_b [15:0] $end
$var wire 16 g w_re [15:0] $end
$var wire 16 h w_im [15:0] $end
$var wire 32 i tw_re_full [31:0] $end
$var wire 16 j tw_re [15:0] $end
$var wire 32 k tw_im_full [31:0] $end
$var wire 16 l tw_im [15:0] $end
$var wire 16 m out_re_b [15:0] $end
$var wire 16 n out_re_a [15:0] $end
$var wire 16 o out_im_b [15:0] $end
$var wire 16 p out_im_a [15:0] $end
$var parameter 32 q DATA_WIDTH $end
$var parameter 32 r FRAC $end
$var parameter 32 s LSB $end
$var parameter 34 t MSB $end
$var parameter 32 u SCALE_EN $end
$scope begin unscaled $end
$upscope $end
$upscope $end
$scope module u_trom $end
$var wire 4 v addr [3:0] $end
$var wire 16 w w_im [15:0] $end
$var wire 16 x w_re [15:0] $end
$var parameter 32 y DATA_WIDTH $end
$var parameter 32 z FRAC $end
$var parameter 32 { N $end
$upscope $end
$upscope $end
$upscope $end
$upscope $end
$enddefinitions $end
$comment Show the parameter values. $end
$dumpall
b100000 {
b1000 z
b10000 y
b0 u
b10111 t
b1000 s
b1000 r
b10000 q
b10 ]
b11 \
b0 [
b100 Z
b1 Y
b0 X
b100000 W
b1000 V
b10000 U
b11 C
b10 B
b1 A
b0 @
b111 ?
b110 >
b101 =
b100 <
b0 ;
b100000 :
b1000 9
b10000 8
b10000000000 '
b100000 &
b1000 %
b10000 $
$end
#0
$dumpvars
bx x
bx w
bx v
bx p
bx o
bx n
bx m
bx l
bx k
bx j
bx i
bx h
bx g
bx f
bx e
bx d
bx c
bx b
bx a
bx `
bx _
bx ^
bx T
bx S
bx R
bx Q
bx P
bx O
bx N
bx M
bx L
bx K
bx J
bx I
bx H
bx G
bx F
bx E
xD
x7
bx 6
bx 5
bx 4
bx 3
bx 2
bx 1
bx 0
0/
bx .
bx -
bx ,
0+
0*
bx )
0(
x#
bx "
bx !
$end
#5000
b1 L
b0 M
b0 H
07
b0 O
b0 ^
b1 N
b10 P
b100000000 I
b100000000 g
b100000000 x
b0 J
b0 h
b0 w
b0 K
b0 v
b0 _
b0 `
0#
0D
b0 E
b0 F
1(
#10000
0(
#15000
1(
#20000
0(
1*
#25000
1(
#30000
0(
b0 0
#35000
1/
b0 -
b0 5
b100000000 .
b100000000 6
b0 ,
b0 4
b1 0
1(
#40000
0(
#45000
b0 .
b0 6
b1 ,
b1 4
b10 0
1(
#50000
0(
#55000
b10 ,
b10 4
b11 0
1(
#60000
0(
#65000
b11 ,
b11 4
b100 0
1(
#70000
0(
#75000
b100 ,
b100 4
b101 0
1(
#80000
0(
#85000
b101 ,
b101 4
b110 0
1(
#90000
0(
#95000
b110 ,
b110 4
b111 0
1(
#100000
0(
#105000
b111 ,
b111 4
b1000 0
1(
#110000
0(
#115000
b1000 ,
b1000 4
b1001 0
1(
#120000
0(
#125000
b1001 ,
b1001 4
b1010 0
1(
#130000
0(
#135000
b1010 ,
b1010 4
b1011 0
1(
#140000
0(
#145000
b1011 ,
b1011 4
b1100 0
1(
#150000
0(
#155000
b1100 ,
b1100 4
b1101 0
1(
#160000
0(
#165000
b1101 ,
b1101 4
b1110 0
1(
#170000
0(
#175000
b1110 ,
b1110 4
b1111 0
1(
#180000
0(
#185000
b1111 ,
b1111 4
b10000 0
1(
#190000
0(
#195000
b10000 ,
b10000 4
b10001 0
1(
#200000
0(
#205000
b10001 ,
b10001 4
b10010 0
1(
#210000
0(
#215000
b10010 ,
b10010 4
b10011 0
1(
#220000
0(
#225000
b10011 ,
b10011 4
b10100 0
1(
#230000
0(
#235000
b10100 ,
b10100 4
b10101 0
1(
#240000
0(
#245000
b10101 ,
b10101 4
b10110 0
1(
#250000
0(
#255000
b10110 ,
b10110 4
b10111 0
1(
#260000
0(
#265000
b10111 ,
b10111 4
b11000 0
1(
#270000
0(
#275000
b11000 ,
b11000 4
b11001 0
1(
#280000
0(
#285000
b11001 ,
b11001 4
b11010 0
1(
#290000
0(
#295000
b11010 ,
b11010 4
b11011 0
1(
#300000
0(
#305000
b11011 ,
b11011 4
b11100 0
1(
#310000
0(
#315000
b11100 ,
b11100 4
b11101 0
1(
#320000
0(
#325000
b11101 ,
b11101 4
b11110 0
1(
#330000
0(
#335000
b11110 ,
b11110 4
b11111 0
1(
#340000
0(
#345000
b11111 ,
b11111 4
b100000 0
1(
#350000
0(
#355000
b100000 ,
b100000 4
b100001 0
1(
#360000
0(
#365000
b100001 ,
b100001 4
b100010 0
1(
#370000
0(
#375000
b100010 ,
b100010 4
b100011 0
1(
#380000
0(
#385000
b100011 ,
b100011 4
b100100 0
1(
#390000
0(
#395000
b100100 ,
b100100 4
b100101 0
1(
#400000
0(
#405000
b100101 ,
b100101 4
b100110 0
1(
#410000
0(
#415000
b100110 ,
b100110 4
b100111 0
1(
#420000
0(
#425000
b100111 ,
b100111 4
b101000 0
1(
#430000
0(
#435000
b101000 ,
b101000 4
b101001 0
1(
#440000
0(
#445000
b101001 ,
b101001 4
b101010 0
1(
#450000
0(
#455000
b101010 ,
b101010 4
b101011 0
1(
#460000
0(
#465000
b101011 ,
b101011 4
b101100 0
1(
#470000
0(
#475000
b101100 ,
b101100 4
b101101 0
1(
#480000
0(
#485000
b101101 ,
b101101 4
b101110 0
1(
#490000
0(
#495000
b101110 ,
b101110 4
b101111 0
1(
#500000
0(
#505000
b101111 ,
b101111 4
b110000 0
1(
#510000
0(
#515000
b110000 ,
b110000 4
b110001 0
1(
#520000
0(
#525000
b110001 ,
b110001 4
b110010 0
1(
#530000
0(
#535000
b110010 ,
b110010 4
b110011 0
1(
#540000
0(
#545000
b110011 ,
b110011 4
b110100 0
1(
#550000
0(
#555000
b110100 ,
b110100 4
b110101 0
1(
#560000
0(
#565000
b110101 ,
b110101 4
b110110 0
1(
#570000
0(
#575000
b110110 ,
b110110 4
b110111 0
1(
#580000
0(
#585000
b110111 ,
b110111 4
b111000 0
1(
#590000
0(
#595000
b111000 ,
b111000 4
b111001 0
1(
#600000
0(
#605000
b111001 ,
b111001 4
b111010 0
1(
#610000
0(
#615000
b111010 ,
b111010 4
b111011 0
1(
#620000
0(
#625000
b111011 ,
b111011 4
b111100 0
1(
#630000
0(
#635000
b111100 ,
b111100 4
b111101 0
1(
#640000
0(
#645000
b111101 ,
b111101 4
b111110 0
1(
#650000
0(
#655000
b111110 ,
b111110 4
b111111 0
1(
#660000
0(
#665000
b111111 ,
b111111 4
b1000000 0
1(
#670000
0(
#675000
b1000000 ,
b1000000 4
b1000001 0
1(
#680000
0(
#685000
b1000001 ,
b1000001 4
b1000010 0
1(
#690000
0(
#695000
b1000010 ,
b1000010 4
b1000011 0
1(
#700000
0(
#705000
b1000011 ,
b1000011 4
b1000100 0
1(
#710000
0(
#715000
b1000100 ,
b1000100 4
b1000101 0
1(
#720000
0(
#725000
b1000101 ,
b1000101 4
b1000110 0
1(
#730000
0(
#735000
b1000110 ,
b1000110 4
b1000111 0
1(
#740000
0(
#745000
b1000111 ,
b1000111 4
b1001000 0
1(
#750000
0(
#755000
b1001000 ,
b1001000 4
b1001001 0
1(
#760000
0(
#765000
b1001001 ,
b1001001 4
b1001010 0
1(
#770000
0(
#775000
b1001010 ,
b1001010 4
b1001011 0
1(
#780000
0(
#785000
b1001011 ,
b1001011 4
b1001100 0
1(
#790000
0(
#795000
b1001100 ,
b1001100 4
b1001101 0
1(
#800000
0(
#805000
b1001101 ,
b1001101 4
b1001110 0
1(
#810000
0(
#815000
b1001110 ,
b1001110 4
b1001111 0
1(
#820000
0(
#825000
b1001111 ,
b1001111 4
b1010000 0
1(
#830000
0(
#835000
b1010000 ,
b1010000 4
b1010001 0
1(
#840000
0(
#845000
b1010001 ,
b1010001 4
b1010010 0
1(
#850000
0(
#855000
b1010010 ,
b1010010 4
b1010011 0
1(
#860000
0(
#865000
b1010011 ,
b1010011 4
b1010100 0
1(
#870000
0(
#875000
b1010100 ,
b1010100 4
b1010101 0
1(
#880000
0(
#885000
b1010101 ,
b1010101 4
b1010110 0
1(
#890000
0(
#895000
b1010110 ,
b1010110 4
b1010111 0
1(
#900000
0(
#905000
b1010111 ,
b1010111 4
b1011000 0
1(
#910000
0(
#915000
b1011000 ,
b1011000 4
b1011001 0
1(
#920000
0(
#925000
b1011001 ,
b1011001 4
b1011010 0
1(
#930000
0(
#935000
b1011010 ,
b1011010 4
b1011011 0
1(
#940000
0(
#945000
b1011011 ,
b1011011 4
b1011100 0
1(
#950000
0(
#955000
b1011100 ,
b1011100 4
b1011101 0
1(
#960000
0(
#965000
b1011101 ,
b1011101 4
b1011110 0
1(
#970000
0(
#975000
b1011110 ,
b1011110 4
b1011111 0
1(
#980000
0(
#985000
b1011111 ,
b1011111 4
b1100000 0
1(
#990000
0(
#995000
b1100000 ,
b1100000 4
b1100001 0
1(
#1000000
0(
#1005000
b1100001 ,
b1100001 4
b1100010 0
1(
#1010000
0(
#1015000
b1100010 ,
b1100010 4
b1100011 0
1(
#1020000
0(
#1025000
b1100011 ,
b1100011 4
b1100100 0
1(
#1030000
0(
#1035000
b1100100 ,
b1100100 4
b1100101 0
1(
#1040000
0(
#1045000
b1100101 ,
b1100101 4
b1100110 0
1(
#1050000
0(
#1055000
b1100110 ,
b1100110 4
b1100111 0
1(
#1060000
0(
#1065000
b1100111 ,
b1100111 4
b1101000 0
1(
#1070000
0(
#1075000
b1101000 ,
b1101000 4
b1101001 0
1(
#1080000
0(
#1085000
b1101001 ,
b1101001 4
b1101010 0
1(
#1090000
0(
#1095000
b1101010 ,
b1101010 4
b1101011 0
1(
#1100000
0(
#1105000
b1101011 ,
b1101011 4
b1101100 0
1(
#1110000
0(
#1115000
b1101100 ,
b1101100 4
b1101101 0
1(
#1120000
0(
#1125000
b1101101 ,
b1101101 4
b1101110 0
1(
#1130000
0(
#1135000
b1101110 ,
b1101110 4
b1101111 0
1(
#1140000
0(
#1145000
b1101111 ,
b1101111 4
b1110000 0
1(
#1150000
0(
#1155000
b1110000 ,
b1110000 4
b1110001 0
1(
#1160000
0(
#1165000
b1110001 ,
b1110001 4
b1110010 0
1(
#1170000
0(
#1175000
b1110010 ,
b1110010 4
b1110011 0
1(
#1180000
0(
#1185000
b1110011 ,
b1110011 4
b1110100 0
1(
#1190000
0(
#1195000
b1110100 ,
b1110100 4
b1110101 0
1(
#1200000
0(
#1205000
b1110101 ,
b1110101 4
b1110110 0
1(
#1210000
0(
#1215000
b1110110 ,
b1110110 4
b1110111 0
1(
#1220000
0(
#1225000
b1110111 ,
b1110111 4
b1111000 0
1(
#1230000
0(
#1235000
b1111000 ,
b1111000 4
b1111001 0
1(
#1240000
0(
#1245000
b1111001 ,
b1111001 4
b1111010 0
1(
#1250000
0(
#1255000
b1111010 ,
b1111010 4
b1111011 0
1(
#1260000
0(
#1265000
b1111011 ,
b1111011 4
b1111100 0
1(
#1270000
0(
#1275000
b1111100 ,
b1111100 4
b1111101 0
1(
#1280000
0(
#1285000
b1111101 ,
b1111101 4
b1111110 0
1(
#1290000
0(
#1295000
b1111110 ,
b1111110 4
b1111111 0
1(
#1300000
0(
#1305000
b1111111 ,
b1111111 4
b10000000 0
1(
#1310000
0(
#1315000
b10000000 ,
b10000000 4
b10000001 0
1(
#1320000
0(
#1325000
b10000001 ,
b10000001 4
b10000010 0
1(
#1330000
0(
#1335000
b10000010 ,
b10000010 4
b10000011 0
1(
#1340000
0(
#1345000
b10000011 ,
b10000011 4
b10000100 0
1(
#1350000
0(
#1355000
b10000100 ,
b10000100 4
b10000101 0
1(
#1360000
0(
#1365000
b10000101 ,
b10000101 4
b10000110 0
1(
#1370000
0(
#1375000
b10000110 ,
b10000110 4
b10000111 0
1(
#1380000
0(
#1385000
b10000111 ,
b10000111 4
b10001000 0
1(
#1390000
0(
#1395000
b10001000 ,
b10001000 4
b10001001 0
1(
#1400000
0(
#1405000
b10001001 ,
b10001001 4
b10001010 0
1(
#1410000
0(
#1415000
b10001010 ,
b10001010 4
b10001011 0
1(
#1420000
0(
#1425000
b10001011 ,
b10001011 4
b10001100 0
1(
#1430000
0(
#1435000
b10001100 ,
b10001100 4
b10001101 0
1(
#1440000
0(
#1445000
b10001101 ,
b10001101 4
b10001110 0
1(
#1450000
0(
#1455000
b10001110 ,
b10001110 4
b10001111 0
1(
#1460000
0(
#1465000
b10001111 ,
b10001111 4
b10010000 0
1(
#1470000
0(
#1475000
b10010000 ,
b10010000 4
b10010001 0
1(
#1480000
0(
#1485000
b10010001 ,
b10010001 4
b10010010 0
1(
#1490000
0(
#1495000
b10010010 ,
b10010010 4
b10010011 0
1(
#1500000
0(
#1505000
b10010011 ,
b10010011 4
b10010100 0
1(
#1510000
0(
#1515000
b10010100 ,
b10010100 4
b10010101 0
1(
#1520000
0(
#1525000
b10010101 ,
b10010101 4
b10010110 0
1(
#1530000
0(
#1535000
b10010110 ,
b10010110 4
b10010111 0
1(
#1540000
0(
#1545000
b10010111 ,
b10010111 4
b10011000 0
1(
#1550000
0(
#1555000
b10011000 ,
b10011000 4
b10011001 0
1(
#1560000
0(
#1565000
b10011001 ,
b10011001 4
b10011010 0
1(
#1570000
0(
#1575000
b10011010 ,
b10011010 4
b10011011 0
1(
#1580000
0(
#1585000
b10011011 ,
b10011011 4
b10011100 0
1(
#1590000
0(
#1595000
b10011100 ,
b10011100 4
b10011101 0
1(
#1600000
0(
#1605000
b10011101 ,
b10011101 4
b10011110 0
1(
#1610000
0(
#1615000
b10011110 ,
b10011110 4
b10011111 0
1(
#1620000
0(
#1625000
b10011111 ,
b10011111 4
b10100000 0
1(
#1630000
0(
#1635000
b10100000 ,
b10100000 4
b10100001 0
1(
#1640000
0(
#1645000
b10100001 ,
b10100001 4
b10100010 0
1(
#1650000
0(
#1655000
b10100010 ,
b10100010 4
b10100011 0
1(
#1660000
0(
#1665000
b10100011 ,
b10100011 4
b10100100 0
1(
#1670000
0(
#1675000
b10100100 ,
b10100100 4
b10100101 0
1(
#1680000
0(
#1685000
b10100101 ,
b10100101 4
b10100110 0
1(
#1690000
0(
#1695000
b10100110 ,
b10100110 4
b10100111 0
1(
#1700000
0(
#1705000
b10100111 ,
b10100111 4
b10101000 0
1(
#1710000
0(
#1715000
b10101000 ,
b10101000 4
b10101001 0
1(
#1720000
0(
#1725000
b10101001 ,
b10101001 4
b10101010 0
1(
#1730000
0(
#1735000
b10101010 ,
b10101010 4
b10101011 0
1(
#1740000
0(
#1745000
b10101011 ,
b10101011 4
b10101100 0
1(
#1750000
0(
#1755000
b10101100 ,
b10101100 4
b10101101 0
1(
#1760000
0(
#1765000
b10101101 ,
b10101101 4
b10101110 0
1(
#1770000
0(
#1775000
b10101110 ,
b10101110 4
b10101111 0
1(
#1780000
0(
#1785000
b10101111 ,
b10101111 4
b10110000 0
1(
#1790000
0(
#1795000
b10110000 ,
b10110000 4
b10110001 0
1(
#1800000
0(
#1805000
b10110001 ,
b10110001 4
b10110010 0
1(
#1810000
0(
#1815000
b10110010 ,
b10110010 4
b10110011 0
1(
#1820000
0(
#1825000
b10110011 ,
b10110011 4
b10110100 0
1(
#1830000
0(
#1835000
b10110100 ,
b10110100 4
b10110101 0
1(
#1840000
0(
#1845000
b10110101 ,
b10110101 4
b10110110 0
1(
#1850000
0(
#1855000
b10110110 ,
b10110110 4
b10110111 0
1(
#1860000
0(
#1865000
b10110111 ,
b10110111 4
b10111000 0
1(
#1870000
0(
#1875000
b10111000 ,
b10111000 4
b10111001 0
1(
#1880000
0(
#1885000
b10111001 ,
b10111001 4
b10111010 0
1(
#1890000
0(
#1895000
b10111010 ,
b10111010 4
b10111011 0
1(
#1900000
0(
#1905000
b10111011 ,
b10111011 4
b10111100 0
1(
#1910000
0(
#1915000
b10111100 ,
b10111100 4
b10111101 0
1(
#1920000
0(
#1925000
b10111101 ,
b10111101 4
b10111110 0
1(
#1930000
0(
#1935000
b10111110 ,
b10111110 4
b10111111 0
1(
#1940000
0(
#1945000
b10111111 ,
b10111111 4
b11000000 0
1(
#1950000
0(
#1955000
b11000000 ,
b11000000 4
b11000001 0
1(
#1960000
0(
#1965000
b11000001 ,
b11000001 4
b11000010 0
1(
#1970000
0(
#1975000
b11000010 ,
b11000010 4
b11000011 0
1(
#1980000
0(
#1985000
b11000011 ,
b11000011 4
b11000100 0
1(
#1990000
0(
#1995000
b11000100 ,
b11000100 4
b11000101 0
1(
#2000000
0(
#2005000
b11000101 ,
b11000101 4
b11000110 0
1(
#2010000
0(
#2015000
b11000110 ,
b11000110 4
b11000111 0
1(
#2020000
0(
#2025000
b11000111 ,
b11000111 4
b11001000 0
1(
#2030000
0(
#2035000
b11001000 ,
b11001000 4
b11001001 0
1(
#2040000
0(
#2045000
b11001001 ,
b11001001 4
b11001010 0
1(
#2050000
0(
#2055000
b11001010 ,
b11001010 4
b11001011 0
1(
#2060000
0(
#2065000
b11001011 ,
b11001011 4
b11001100 0
1(
#2070000
0(
#2075000
b11001100 ,
b11001100 4
b11001101 0
1(
#2080000
0(
#2085000
b11001101 ,
b11001101 4
b11001110 0
1(
#2090000
0(
#2095000
b11001110 ,
b11001110 4
b11001111 0
1(
#2100000
0(
#2105000
b11001111 ,
b11001111 4
b11010000 0
1(
#2110000
0(
#2115000
b11010000 ,
b11010000 4
b11010001 0
1(
#2120000
0(
#2125000
b11010001 ,
b11010001 4
b11010010 0
1(
#2130000
0(
#2135000
b11010010 ,
b11010010 4
b11010011 0
1(
#2140000
0(
#2145000
b11010011 ,
b11010011 4
b11010100 0
1(
#2150000
0(
#2155000
b11010100 ,
b11010100 4
b11010101 0
1(
#2160000
0(
#2165000
b11010101 ,
b11010101 4
b11010110 0
1(
#2170000
0(
#2175000
b11010110 ,
b11010110 4
b11010111 0
1(
#2180000
0(
#2185000
b11010111 ,
b11010111 4
b11011000 0
1(
#2190000
0(
#2195000
b11011000 ,
b11011000 4
b11011001 0
1(
#2200000
0(
#2205000
b11011001 ,
b11011001 4
b11011010 0
1(
#2210000
0(
#2215000
b11011010 ,
b11011010 4
b11011011 0
1(
#2220000
0(
#2225000
b11011011 ,
b11011011 4
b11011100 0
1(
#2230000
0(
#2235000
b11011100 ,
b11011100 4
b11011101 0
1(
#2240000
0(
#2245000
b11011101 ,
b11011101 4
b11011110 0
1(
#2250000
0(
#2255000
b11011110 ,
b11011110 4
b11011111 0
1(
#2260000
0(
#2265000
b11011111 ,
b11011111 4
b11100000 0
1(
#2270000
0(
#2275000
b11100000 ,
b11100000 4
b11100001 0
1(
#2280000
0(
#2285000
b11100001 ,
b11100001 4
b11100010 0
1(
#2290000
0(
#2295000
b11100010 ,
b11100010 4
b11100011 0
1(
#2300000
0(
#2305000
b11100011 ,
b11100011 4
b11100100 0
1(
#2310000
0(
#2315000
b11100100 ,
b11100100 4
b11100101 0
1(
#2320000
0(
#2325000
b11100101 ,
b11100101 4
b11100110 0
1(
#2330000
0(
#2335000
b11100110 ,
b11100110 4
b11100111 0
1(
#2340000
0(
#2345000
b11100111 ,
b11100111 4
b11101000 0
1(
#2350000
0(
#2355000
b11101000 ,
b11101000 4
b11101001 0
1(
#2360000
0(
#2365000
b11101001 ,
b11101001 4
b11101010 0
1(
#2370000
0(
#2375000
b11101010 ,
b11101010 4
b11101011 0
1(
#2380000
0(
#2385000
b11101011 ,
b11101011 4
b11101100 0
1(
#2390000
0(
#2395000
b11101100 ,
b11101100 4
b11101101 0
1(
#2400000
0(
#2405000
b11101101 ,
b11101101 4
b11101110 0
1(
#2410000
0(
#2415000
b11101110 ,
b11101110 4
b11101111 0
1(
#2420000
0(
#2425000
b11101111 ,
b11101111 4
b11110000 0
1(
#2430000
0(
#2435000
b11110000 ,
b11110000 4
b11110001 0
1(
#2440000
0(
#2445000
b11110001 ,
b11110001 4
b11110010 0
1(
#2450000
0(
#2455000
b11110010 ,
b11110010 4
b11110011 0
1(
#2460000
0(
#2465000
b11110011 ,
b11110011 4
b11110100 0
1(
#2470000
0(
#2475000
b11110100 ,
b11110100 4
b11110101 0
1(
#2480000
0(
#2485000
b11110101 ,
b11110101 4
b11110110 0
1(
#2490000
0(
#2495000
b11110110 ,
b11110110 4
b11110111 0
1(
#2500000
0(
#2505000
b11110111 ,
b11110111 4
b11111000 0
1(
#2510000
0(
#2515000
b11111000 ,
b11111000 4
b11111001 0
1(
#2520000
0(
#2525000
b11111001 ,
b11111001 4
b11111010 0
1(
#2530000
0(
#2535000
b11111010 ,
b11111010 4
b11111011 0
1(
#2540000
0(
#2545000
b11111011 ,
b11111011 4
b11111100 0
1(
#2550000
0(
#2555000
b11111100 ,
b11111100 4
b11111101 0
1(
#2560000
0(
#2565000
b11111101 ,
b11111101 4
b11111110 0
1(
#2570000
0(
#2575000
b11111110 ,
b11111110 4
b11111111 0
1(
#2580000
0(
#2585000
b11111111 ,
b11111111 4
b100000000 0
1(
#2590000
0(
#2595000
b100000000 ,
b100000000 4
b100000001 0
1(
#2600000
0(
#2605000
b100000001 ,
b100000001 4
b100000010 0
1(
#2610000
0(
#2615000
b100000010 ,
b100000010 4
b100000011 0
1(
#2620000
0(
#2625000
b100000011 ,
b100000011 4
b100000100 0
1(
#2630000
0(
#2635000
b100000100 ,
b100000100 4
b100000101 0
1(
#2640000
0(
#2645000
b100000101 ,
b100000101 4
b100000110 0
1(
#2650000
0(
#2655000
b100000110 ,
b100000110 4
b100000111 0
1(
#2660000
0(
#2665000
b100000111 ,
b100000111 4
b100001000 0
1(
#2670000
0(
#2675000
b100001000 ,
b100001000 4
b100001001 0
1(
#2680000
0(
#2685000
b100001001 ,
b100001001 4
b100001010 0
1(
#2690000
0(
#2695000
b100001010 ,
b100001010 4
b100001011 0
1(
#2700000
0(
#2705000
b100001011 ,
b100001011 4
b100001100 0
1(
#2710000
0(
#2715000
b100001100 ,
b100001100 4
b100001101 0
1(
#2720000
0(
#2725000
b100001101 ,
b100001101 4
b100001110 0
1(
#2730000
0(
#2735000
b100001110 ,
b100001110 4
b100001111 0
1(
#2740000
0(
#2745000
b100001111 ,
b100001111 4
b100010000 0
1(
#2750000
0(
#2755000
b100010000 ,
b100010000 4
b100010001 0
1(
#2760000
0(
#2765000
b100010001 ,
b100010001 4
b100010010 0
1(
#2770000
0(
#2775000
b100010010 ,
b100010010 4
b100010011 0
1(
#2780000
0(
#2785000
b100010011 ,
b100010011 4
b100010100 0
1(
#2790000
0(
#2795000
b100010100 ,
b100010100 4
b100010101 0
1(
#2800000
0(
#2805000
b100010101 ,
b100010101 4
b100010110 0
1(
#2810000
0(
#2815000
b100010110 ,
b100010110 4
b100010111 0
1(
#2820000
0(
#2825000
b100010111 ,
b100010111 4
b100011000 0
1(
#2830000
0(
#2835000
b100011000 ,
b100011000 4
b100011001 0
1(
#2840000
0(
#2845000
b100011001 ,
b100011001 4
b100011010 0
1(
#2850000
0(
#2855000
b100011010 ,
b100011010 4
b100011011 0
1(
#2860000
0(
#2865000
b100011011 ,
b100011011 4
b100011100 0
1(
#2870000
0(
#2875000
b100011100 ,
b100011100 4
b100011101 0
1(
#2880000
0(
#2885000
b100011101 ,
b100011101 4
b100011110 0
1(
#2890000
0(
#2895000
b100011110 ,
b100011110 4
b100011111 0
1(
#2900000
0(
#2905000
b100011111 ,
b100011111 4
b100100000 0
1(
#2910000
0(
#2915000
b100100000 ,
b100100000 4
b100100001 0
1(
#2920000
0(
#2925000
b100100001 ,
b100100001 4
b100100010 0
1(
#2930000
0(
#2935000
b100100010 ,
b100100010 4
b100100011 0
1(
#2940000
0(
#2945000
b100100011 ,
b100100011 4
b100100100 0
1(
#2950000
0(
#2955000
b100100100 ,
b100100100 4
b100100101 0
1(
#2960000
0(
#2965000
b100100101 ,
b100100101 4
b100100110 0
1(
#2970000
0(
#2975000
b100100110 ,
b100100110 4
b100100111 0
1(
#2980000
0(
#2985000
b100100111 ,
b100100111 4
b100101000 0
1(
#2990000
0(
#2995000
b100101000 ,
b100101000 4
b100101001 0
1(
#3000000
0(
#3005000
b100101001 ,
b100101001 4
b100101010 0
1(
#3010000
0(
#3015000
b100101010 ,
b100101010 4
b100101011 0
1(
#3020000
0(
#3025000
b100101011 ,
b100101011 4
b100101100 0
1(
#3030000
0(
#3035000
b100101100 ,
b100101100 4
b100101101 0
1(
#3040000
0(
#3045000
b100101101 ,
b100101101 4
b100101110 0
1(
#3050000
0(
#3055000
b100101110 ,
b100101110 4
b100101111 0
1(
#3060000
0(
#3065000
b100101111 ,
b100101111 4
b100110000 0
1(
#3070000
0(
#3075000
b100110000 ,
b100110000 4
b100110001 0
1(
#3080000
0(
#3085000
b100110001 ,
b100110001 4
b100110010 0
1(
#3090000
0(
#3095000
b100110010 ,
b100110010 4
b100110011 0
1(
#3100000
0(
#3105000
b100110011 ,
b100110011 4
b100110100 0
1(
#3110000
0(
#3115000
b100110100 ,
b100110100 4
b100110101 0
1(
#3120000
0(
#3125000
b100110101 ,
b100110101 4
b100110110 0
1(
#3130000
0(
#3135000
b100110110 ,
b100110110 4
b100110111 0
1(
#3140000
0(
#3145000
b100110111 ,
b100110111 4
b100111000 0
1(
#3150000
0(
#3155000
b100111000 ,
b100111000 4
b100111001 0
1(
#3160000
0(
#3165000
b100111001 ,
b100111001 4
b100111010 0
1(
#3170000
0(
#3175000
b100111010 ,
b100111010 4
b100111011 0
1(
#3180000
0(
#3185000
b100111011 ,
b100111011 4
b100111100 0
1(
#3190000
0(
#3195000
b100111100 ,
b100111100 4
b100111101 0
1(
#3200000
0(
#3205000
b100111101 ,
b100111101 4
b100111110 0
1(
#3210000
0(
#3215000
b100111110 ,
b100111110 4
b100111111 0
1(
#3220000
0(
#3225000
b100111111 ,
b100111111 4
b101000000 0
1(
#3230000
0(
#3235000
b101000000 ,
b101000000 4
b101000001 0
1(
#3240000
0(
#3245000
b101000001 ,
b101000001 4
b101000010 0
1(
#3250000
0(
#3255000
b101000010 ,
b101000010 4
b101000011 0
1(
#3260000
0(
#3265000
b101000011 ,
b101000011 4
b101000100 0
1(
#3270000
0(
#3275000
b101000100 ,
b101000100 4
b101000101 0
1(
#3280000
0(
#3285000
b101000101 ,
b101000101 4
b101000110 0
1(
#3290000
0(
#3295000
b101000110 ,
b101000110 4
b101000111 0
1(
#3300000
0(
#3305000
b101000111 ,
b101000111 4
b101001000 0
1(
#3310000
0(
#3315000
b101001000 ,
b101001000 4
b101001001 0
1(
#3320000
0(
#3325000
b101001001 ,
b101001001 4
b101001010 0
1(
#3330000
0(
#3335000
b101001010 ,
b101001010 4
b101001011 0
1(
#3340000
0(
#3345000
b101001011 ,
b101001011 4
b101001100 0
1(
#3350000
0(
#3355000
b101001100 ,
b101001100 4
b101001101 0
1(
